TEK00005.CSV

Model,TBS1052C
Firmware Version,v2015-08-04-prequal4ch70_v1.3

Point Format,Y
Horizontal Units,S
Horizontal Scale,0.04
Sample Interval,0.00032
Filter Frequency,2e+08
Record Length,2000
Gating,0.0% to 100.0%
Probe Attenuation,1
Vertical Units,V
Vertical Offset,0
Vertical Scale,5
Label,
TIME,CH1
-3.200e-01,-4.6
-3.197e-01,-3.8
-3.194e-01,-3.8
-3.190e-01,-3.6
-3.187e-01,-5.2
-3.184e-01,-5.4
-3.181e-01,-3.2
-3.178e-01,-3.8
-3.174e-01,-2
-3.171e-01,-3.4
-3.168e-01,-3.6
-3.165e-01,-6
-3.162e-01,-5.2
-3.158e-01,-5.6
-3.155e-01,-5
-3.152e-01,-3.6
-3.149e-01,-2.8
-3.146e-01,-4.4
-3.142e-01,-4.4
-3.139e-01,-4
-3.136e-01,-3.6
-3.133e-01,-3
-3.130e-01,-3.4
-3.126e-01,-3.4
-3.123e-01,-3.2
-3.120e-01,-3.2
-3.117e-01,-2.8
-3.114e-01,-2
-3.110e-01,-1.4
-3.107e-01,-5.6
-3.104e-01,-1.8
-3.101e-01,-5.2
-3.098e-01,-4.8
-3.094e-01,-2
-3.091e-01,-3.6
-3.088e-01,-3.6
-3.085e-01,-4.4
-3.082e-01,-2.8
-3.078e-01,-2.4
-3.075e-01,-1.4
-3.072e-01,-1.6
-3.069e-01,-2.8
-3.066e-01,-2.4
-3.062e-01,-1.4
-3.059e-01,-5.4
-3.056e-01,-2.8
-3.053e-01,0.6
-3.050e-01,1.8
-3.046e-01,0.6
-3.043e-01,0
-3.040e-01,1.2
-3.037e-01,3.4
-3.034e-01,4
-3.030e-01,3.8
-3.027e-01,2.8
-3.024e-01,4.2
-3.021e-01,6.2
-3.018e-01,6.4
-3.014e-01,6.4
-3.011e-01,6.8
-3.008e-01,5.2
-3.005e-01,6.8
-3.002e-01,7
-2.998e-01,6
-2.995e-01,7.6
-2.992e-01,7.8
-2.989e-01,7
-2.986e-01,6
-2.982e-01,5.8
-2.979e-01,5.2
-2.976e-01,3.4
-2.973e-01,2.8
-2.970e-01,4
-2.966e-01,2.8
-2.963e-01,0
-2.960e-01,0.2
-2.957e-01,3.2
-2.954e-01,2.2
-2.950e-01,2.4
-2.947e-01,2.8
-2.944e-01,5.6
-2.941e-01,1.8
-2.938e-01,0.2
-2.934e-01,1.2
-2.931e-01,0
-2.928e-01,1.2
-2.925e-01,1.2
-2.922e-01,1
-2.918e-01,-0.2
-2.915e-01,0.4
-2.912e-01,0.2
-2.909e-01,0.8
-2.906e-01,-3.6
-2.902e-01,-4.4
-2.899e-01,-3.4
-2.896e-01,-3.8
-2.893e-01,-3
-2.890e-01,-2.6
-2.886e-01,-3.2
-2.883e-01,-3
-2.880e-01,-5
-2.877e-01,-5.2
-2.874e-01,-5.2
-2.870e-01,-4
-2.867e-01,-4.4
-2.864e-01,-6
-2.861e-01,-6.4
-2.858e-01,-5.8
-2.854e-01,-4.8
-2.851e-01,-5.4
-2.848e-01,-6.2
-2.845e-01,-5.4
-2.842e-01,-4.6
-2.838e-01,-6.2
-2.835e-01,-4.6
-2.832e-01,-4.4
-2.829e-01,-4.8
-2.826e-01,-4.6
-2.822e-01,-4.2
-2.819e-01,-4
-2.816e-01,-2.6
-2.813e-01,-2.4
-2.810e-01,-2
-2.806e-01,-6.6
-2.803e-01,0
-2.800e-01,-4.8
-2.797e-01,-3.4
-2.794e-01,-2
-2.790e-01,-3.2
-2.787e-01,-2.2
-2.784e-01,-1.6
-2.781e-01,-1.2
-2.778e-01,-0.2
-2.774e-01,-0.4
-2.771e-01,-1
-2.768e-01,-0.2
-2.765e-01,-1.2
-2.762e-01,-1
-2.758e-01,0.6
-2.755e-01,1
-2.752e-01,0.2
-2.749e-01,-0.6
-2.746e-01,0.2
-2.742e-01,1.6
-2.739e-01,2.2
-2.736e-01,2.8
-2.733e-01,4
-2.730e-01,5.2
-2.726e-01,4
-2.723e-01,4.2
-2.720e-01,3.6
-2.717e-01,5.4
-2.714e-01,4
-2.710e-01,5.2
-2.707e-01,6.4
-2.704e-01,6.4
-2.701e-01,4.6
-2.698e-01,5
-2.694e-01,7
-2.691e-01,6
-2.688e-01,6.6
-2.685e-01,6.8
-2.682e-01,3.6
-2.678e-01,5.2
-2.675e-01,4
-2.672e-01,3.8
-2.669e-01,0.8
-2.666e-01,3.8
-2.662e-01,4.4
-2.659e-01,1.8
-2.656e-01,1.2
-2.653e-01,2.4
-2.650e-01,2.8
-2.646e-01,1.4
-2.643e-01,0.2
-2.640e-01,-0.2
-2.637e-01,0
-2.634e-01,3.4
-2.630e-01,-2.6
-2.627e-01,-0.2
-2.624e-01,-0.2
-2.621e-01,-0.4
-2.618e-01,0
-2.614e-01,0
-2.611e-01,2.4
-2.608e-01,-0.6
-2.605e-01,-0.8
-2.602e-01,0.2
-2.598e-01,-1.4
-2.595e-01,0.2
-2.592e-01,0.2
-2.589e-01,0.4
-2.586e-01,-0.2
-2.582e-01,-1.2
-2.579e-01,-2.4
-2.576e-01,-2.4
-2.573e-01,-3.6
-2.570e-01,-4.4
-2.566e-01,-2.8
-2.563e-01,-2.8
-2.560e-01,-3.4
-2.557e-01,-3.4
-2.554e-01,-4
-2.550e-01,-3.4
-2.547e-01,-2.8
-2.544e-01,-4.2
-2.541e-01,-6
-2.538e-01,-5.6
-2.534e-01,-5.6
-2.531e-01,-6
-2.528e-01,-5
-2.525e-01,-5
-2.522e-01,-5
-2.518e-01,-4.4
-2.515e-01,-4
-2.512e-01,-4.8
-2.509e-01,-3.8
-2.506e-01,-3.4
-2.502e-01,-4
-2.499e-01,-3
-2.496e-01,-3.4
-2.493e-01,-3.2
-2.490e-01,-1
-2.486e-01,-6.4
-2.483e-01,0
-2.480e-01,-5
-2.477e-01,-1.4
-2.474e-01,-0.6
-2.470e-01,-1.2
-2.467e-01,-3.6
-2.464e-01,-2
-2.461e-01,-1.8
-2.458e-01,-2.2
-2.454e-01,-1.2
-2.451e-01,-1.2
-2.448e-01,-2.2
-2.445e-01,-2.4
-2.442e-01,-1.4
-2.438e-01,-0.6
-2.435e-01,-0.4
-2.432e-01,0.2
-2.429e-01,1
-2.426e-01,0.8
-2.422e-01,1.6
-2.419e-01,1.4
-2.416e-01,2
-2.413e-01,5.2
-2.410e-01,6.8
-2.406e-01,6.8
-2.403e-01,8
-2.400e-01,5.4
-2.397e-01,7.6
-2.394e-01,6.6
-2.390e-01,7.8
-2.387e-01,10.4
-2.384e-01,6.2
-2.381e-01,5.4
-2.378e-01,5.8
-2.374e-01,4.8
-2.371e-01,7.4
-2.368e-01,9.4
-2.365e-01,5.6
-2.362e-01,6.4
-2.358e-01,1
-2.355e-01,3.6
-2.352e-01,3.8
-2.349e-01,2.4
-2.346e-01,2.8
-2.342e-01,2.4
-2.339e-01,1.8
-2.336e-01,1.8
-2.333e-01,2.2
-2.330e-01,0.6
-2.326e-01,-0.8
-2.323e-01,0.6
-2.320e-01,-6
-2.317e-01,-0.6
-2.314e-01,2.2
-2.310e-01,1.8
-2.307e-01,-1.4
-2.304e-01,-1.2
-2.301e-01,1
-2.298e-01,-0.8
-2.294e-01,0.4
-2.291e-01,-0.4
-2.288e-01,0.2
-2.285e-01,-1.6
-2.282e-01,-2.8
-2.278e-01,-2.8
-2.275e-01,-2.2
-2.272e-01,-4.2
-2.269e-01,-1.6
-2.266e-01,-2.2
-2.262e-01,-3.8
-2.259e-01,-3
-2.256e-01,-4
-2.253e-01,-3.4
-2.250e-01,-5
-2.246e-01,-5.4
-2.243e-01,-4.4
-2.240e-01,-6.4
-2.237e-01,-3.2
-2.234e-01,-4.4
-2.230e-01,-5.8
-2.227e-01,-4.8
-2.224e-01,-6.4
-2.221e-01,-5.4
-2.218e-01,-3.4
-2.214e-01,-4.4
-2.211e-01,-4.2
-2.208e-01,-3.2
-2.205e-01,-4.4
-2.202e-01,-4.4
-2.198e-01,-3.6
-2.195e-01,-3
-2.192e-01,-2.4
-2.189e-01,-1.6
-2.186e-01,-1.4
-2.182e-01,-4.2
-2.179e-01,-0.6
-2.176e-01,-3.8
-2.173e-01,-0.8
-2.170e-01,0.4
-2.166e-01,-1.2
-2.163e-01,-1.2
-2.160e-01,-2.2
-2.157e-01,-2.2
-2.154e-01,-2
-2.150e-01,-1.2
-2.147e-01,-2
-2.144e-01,-1
-2.141e-01,-0.6
-2.138e-01,-1.4
-2.134e-01,-1.6
-2.131e-01,-0.6
-2.128e-01,-0.6
-2.125e-01,-1
-2.122e-01,0.4
-2.118e-01,1.2
-2.115e-01,-0.2
-2.112e-01,0.8
-2.109e-01,1.8
-2.106e-01,2.2
-2.102e-01,6.6
-2.099e-01,4.8
-2.096e-01,5.2
-2.093e-01,6.6
-2.090e-01,5
-2.086e-01,5.2
-2.083e-01,8.6
-2.080e-01,5.2
-2.077e-01,5.6
-2.074e-01,5.6
-2.070e-01,4.8
-2.067e-01,5
-2.064e-01,7
-2.061e-01,5.6
-2.058e-01,6.8
-2.054e-01,3.6
-2.051e-01,5
-2.048e-01,4
-2.045e-01,2.4
-2.042e-01,2.2
-2.038e-01,5
-2.035e-01,3.4
-2.032e-01,1.4
-2.029e-01,2.4
-2.026e-01,3
-2.022e-01,1.8
-2.019e-01,0.8
-2.016e-01,1.8
-2.013e-01,0.6
-2.010e-01,-0.2
-2.006e-01,2.2
-2.003e-01,-2.8
-2.000e-01,-1
-1.997e-01,4.4
-1.994e-01,3
-1.990e-01,1.4
-1.987e-01,0.2
-1.984e-01,2.4
-1.981e-01,2.2
-1.978e-01,1.6
-1.974e-01,1
-1.971e-01,-1.2
-1.968e-01,0.8
-1.965e-01,1
-1.962e-01,0
-1.958e-01,-0.2
-1.955e-01,-0.4
-1.952e-01,0.2
-1.949e-01,0.6
-1.946e-01,-3
-1.942e-01,-5.4
-1.939e-01,-5.8
-1.936e-01,-5.4
-1.933e-01,-3.6
-1.930e-01,-3.8
-1.926e-01,-4.8
-1.923e-01,-5.6
-1.920e-01,-5.8
-1.917e-01,-6
-1.914e-01,-6.2
-1.910e-01,-6.6
-1.907e-01,-5.4
-1.904e-01,-1.8
-1.901e-01,-6.6
-1.898e-01,-6.2
-1.894e-01,-6
-1.891e-01,-3.6
-1.888e-01,-4.6
-1.885e-01,-4.6
-1.882e-01,-5.2
-1.878e-01,-3.8
-1.875e-01,-3.2
-1.872e-01,-2.8
-1.869e-01,-0.8
-1.866e-01,-2.4
-1.862e-01,-3.2
-1.859e-01,-6.6
-1.856e-01,-1.4
-1.853e-01,-4.2
-1.850e-01,-4.6
-1.846e-01,-3.8
-1.843e-01,-2.4
-1.840e-01,-2.8
-1.837e-01,-2.2
-1.834e-01,-1.8
-1.830e-01,-2.6
-1.827e-01,-1.4
-1.824e-01,-0.6
-1.821e-01,-0.4
-1.818e-01,-1.6
-1.814e-01,-2.4
-1.811e-01,-1
-1.808e-01,0.6
-1.805e-01,0.8
-1.802e-01,1.4
-1.798e-01,2.4
-1.795e-01,2.2
-1.792e-01,2.2
-1.789e-01,4.4
-1.786e-01,4.4
-1.782e-01,5
-1.779e-01,3.8
-1.776e-01,3
-1.773e-01,4.8
-1.770e-01,4.8
-1.766e-01,6.2
-1.763e-01,7.8
-1.760e-01,6.8
-1.757e-01,8
-1.754e-01,10
-1.750e-01,7.4
-1.747e-01,7.2
-1.744e-01,2.8
-1.741e-01,4.2
-1.738e-01,8.4
-1.734e-01,2.2
-1.731e-01,3.2
-1.728e-01,6.2
-1.725e-01,4.8
-1.722e-01,1.6
-1.718e-01,2.2
-1.715e-01,5
-1.712e-01,0
-1.709e-01,0
-1.706e-01,1.2
-1.702e-01,2.2
-1.699e-01,0.2
-1.696e-01,3.4
-1.693e-01,6
-1.690e-01,2.4
-1.686e-01,0
-1.683e-01,0
-1.680e-01,-1.4
-1.677e-01,-0.8
-1.674e-01,0.8
-1.670e-01,1
-1.667e-01,-1.4
-1.664e-01,-1.4
-1.661e-01,-1.2
-1.658e-01,-1.2
-1.654e-01,-1.6
-1.651e-01,-0.6
-1.648e-01,0.6
-1.645e-01,-1.6
-1.642e-01,-2.2
-1.638e-01,-3.4
-1.635e-01,-2.4
-1.632e-01,-4.6
-1.629e-01,-3
-1.626e-01,-1.6
-1.622e-01,-2.6
-1.619e-01,-4.4
-1.616e-01,-4.4
-1.613e-01,-4.4
-1.610e-01,-5.8
-1.606e-01,-6.2
-1.603e-01,-5.2
-1.600e-01,-4.2
-1.597e-01,-5.6
-1.594e-01,-5.4
-1.590e-01,-5.4
-1.587e-01,-4
-1.584e-01,-4.2
-1.581e-01,-4.4
-1.578e-01,-3.2
-1.574e-01,-3.4
-1.571e-01,-3.8
-1.568e-01,-3.2
-1.565e-01,-2.8
-1.562e-01,-3.2
-1.558e-01,-2.2
-1.555e-01,-1.4
-1.552e-01,-1.4
-1.549e-01,3
-1.546e-01,-6.2
-1.542e-01,-1.2
-1.539e-01,-3
-1.536e-01,-3.6
-1.533e-01,-2.8
-1.530e-01,-2.8
-1.526e-01,-3.2
-1.523e-01,-2
-1.520e-01,-1
-1.517e-01,-0.6
-1.514e-01,-1.8
-1.510e-01,-1.6
-1.507e-01,-3
-1.504e-01,-2.2
-1.501e-01,-0.8
-1.498e-01,-1.2
-1.494e-01,-0.6
-1.491e-01,0.4
-1.488e-01,1.8
-1.485e-01,2.2
-1.482e-01,2.4
-1.478e-01,2
-1.475e-01,2
-1.472e-01,0.8
-1.469e-01,3.6
-1.466e-01,4.4
-1.462e-01,4.8
-1.459e-01,6.2
-1.456e-01,4.6
-1.453e-01,3.6
-1.450e-01,4.2
-1.446e-01,5.8
-1.443e-01,7.6
-1.440e-01,5.2
-1.437e-01,7.2
-1.434e-01,6
-1.430e-01,6.4
-1.427e-01,2.2
-1.424e-01,5
-1.421e-01,5.4
-1.418e-01,6.6
-1.414e-01,3.6
-1.411e-01,3.2
-1.408e-01,1.2
-1.405e-01,2.8
-1.402e-01,3
-1.398e-01,4.6
-1.395e-01,4.6
-1.392e-01,2.6
-1.389e-01,2
-1.386e-01,1.4
-1.382e-01,3.4
-1.379e-01,2.2
-1.376e-01,1.6
-1.373e-01,0.2
-1.370e-01,0.4
-1.366e-01,-0.2
-1.363e-01,-4.4
-1.360e-01,1.8
-1.357e-01,8.4
-1.354e-01,5.6
-1.350e-01,-0.8
-1.347e-01,-2.2
-1.344e-01,-0.8
-1.341e-01,-0.4
-1.338e-01,0
-1.334e-01,0.8
-1.331e-01,0
-1.328e-01,-1
-1.325e-01,-0.6
-1.322e-01,-0.4
-1.318e-01,-3.8
-1.315e-01,-5
-1.312e-01,-6
-1.309e-01,-6.4
-1.306e-01,-4.2
-1.302e-01,-4.4
-1.299e-01,-4.4
-1.296e-01,-4.8
-1.293e-01,-6.4
-1.290e-01,-6
-1.286e-01,-5.2
-1.283e-01,-4.2
-1.280e-01,-5.2
-1.277e-01,-6.4
-1.274e-01,-4
-1.270e-01,-6.4
-1.267e-01,-6.6
-1.264e-01,-4.2
-1.261e-01,-3.4
-1.258e-01,-5.4
-1.254e-01,-4
-1.251e-01,-4.4
-1.248e-01,-3.6
-1.245e-01,-2
-1.242e-01,-2
-1.238e-01,-3.6
-1.235e-01,-3.8
-1.232e-01,-1
-1.229e-01,-5.8
-1.226e-01,-3.2
-1.222e-01,0
-1.219e-01,-2.4
-1.216e-01,-2.2
-1.213e-01,-2.4
-1.210e-01,-2.2
-1.206e-01,-2.2
-1.203e-01,0.4
-1.200e-01,-1.4
-1.197e-01,-1
-1.194e-01,-0.8
-1.190e-01,-1.6
-1.187e-01,-0.6
-1.184e-01,0.2
-1.181e-01,-0.4
-1.178e-01,1.2
-1.174e-01,1.4
-1.171e-01,1.8
-1.168e-01,2.2
-1.165e-01,2.6
-1.162e-01,5.8
-1.158e-01,4.8
-1.155e-01,5.2
-1.152e-01,6
-1.149e-01,5.2
-1.146e-01,5.2
-1.142e-01,6.8
-1.139e-01,4.8
-1.136e-01,5.4
-1.133e-01,5.8
-1.130e-01,6.8
-1.126e-01,6
-1.123e-01,2.2
-1.120e-01,6.8
-1.117e-01,8.8
-1.114e-01,5.8
-1.110e-01,2.4
-1.107e-01,5.6
-1.104e-01,5.6
-1.101e-01,2
-1.098e-01,0.6
-1.094e-01,3.8
-1.091e-01,4.2
-1.088e-01,0.4
-1.085e-01,1.6
-1.082e-01,2.2
-1.078e-01,1.8
-1.075e-01,0.8
-1.072e-01,1.6
-1.069e-01,1.4
-1.066e-01,-0.4
-1.062e-01,0.6
-1.059e-01,2.2
-1.056e-01,1
-1.053e-01,0.2
-1.050e-01,0.2
-1.046e-01,0.6
-1.043e-01,0.8
-1.040e-01,0
-1.037e-01,0.2
-1.034e-01,0.2
-1.030e-01,-0.4
-1.027e-01,-0.8
-1.024e-01,-0.6
-1.021e-01,-0.6
-1.018e-01,-2.4
-1.014e-01,-1.8
-1.011e-01,-2.2
-1.008e-01,-4.4
-1.005e-01,-4
-1.002e-01,-4
-9.984e-02,-3.2
-9.952e-02,-2.6
-9.920e-02,-3.4
-9.888e-02,-4.6
-9.856e-02,-3.2
-9.824e-02,-5
-9.792e-02,-5.2
-9.760e-02,-5
-9.728e-02,-5.6
-9.696e-02,-5.2
-9.664e-02,-2
-9.632e-02,-6
-9.600e-02,-4.8
-9.568e-02,-4.6
-9.536e-02,-4.2
-9.504e-02,-4.6
-9.472e-02,-3.6
-9.440e-02,-3.8
-9.408e-02,-3
-9.376e-02,-2
-9.344e-02,-2.4
-9.312e-02,-3.4
-9.280e-02,-3.6
-9.248e-02,-2.8
-9.216e-02,-2.8
-9.184e-02,-2.2
-9.152e-02,-1.4
-9.120e-02,-4.6
-9.088e-02,-3.6
-9.056e-02,-4.6
-9.024e-02,-3.2
-8.992e-02,-2.4
-8.960e-02,-3.4
-8.928e-02,-2.8
-8.896e-02,-3.4
-8.864e-02,-2.2
-8.832e-02,-3.4
-8.800e-02,-2.4
-8.768e-02,-1.8
-8.736e-02,-2.4
-8.704e-02,-0.8
-8.672e-02,-2.2
-8.640e-02,-1
-8.608e-02,-1
-8.576e-02,-0.8
-8.544e-02,0.4
-8.512e-02,-0.4
-8.480e-02,0.2
-8.448e-02,1.6
-8.416e-02,2.8
-8.384e-02,7
-8.352e-02,6.8
-8.320e-02,5
-8.288e-02,8.6
-8.256e-02,4
-8.224e-02,2
-8.192e-02,3.4
-8.160e-02,4.6
-8.128e-02,7.6
-8.096e-02,9
-8.064e-02,9.8
-8.032e-02,5.4
-8.000e-02,5.8
-7.968e-02,9
-7.936e-02,3.8
-7.904e-02,4.4
-7.872e-02,6
-7.840e-02,4.2
-7.808e-02,2.2
-7.776e-02,3
-7.744e-02,2
-7.712e-02,4.4
-7.680e-02,3.8
-7.648e-02,3.2
-7.616e-02,5
-7.584e-02,2.6
-7.552e-02,3.2
-7.520e-02,-0.2
-7.488e-02,1.8
-7.456e-02,3
-7.424e-02,1.2
-7.392e-02,0.8
-7.360e-02,-2.6
-7.328e-02,-2.8
-7.296e-02,2.2
-7.264e-02,3
-7.232e-02,-0.2
-7.200e-02,-0.6
-7.168e-02,-0.8
-7.136e-02,-1.6
-7.104e-02,-0.8
-7.072e-02,0
-7.040e-02,-0.8
-7.008e-02,0.2
-6.976e-02,0
-6.944e-02,-3
-6.912e-02,-4.8
-6.880e-02,-5.6
-6.848e-02,-5.6
-6.816e-02,-4.2
-6.784e-02,-4.4
-6.752e-02,-5.6
-6.720e-02,-5.8
-6.688e-02,-6.4
-6.656e-02,-5.6
-6.624e-02,-5
-6.592e-02,-0.6
-6.560e-02,-5.2
-6.528e-02,-6
-6.496e-02,-5.8
-6.464e-02,-6.4
-6.432e-02,-6
-6.400e-02,-4.6
-6.368e-02,-4.4
-6.336e-02,-4.8
-6.304e-02,-4.2
-6.272e-02,-4.6
-6.240e-02,-3.8
-6.208e-02,-2.2
-6.176e-02,-2.2
-6.144e-02,-2.2
-6.112e-02,-1.6
-6.080e-02,-5.6
-6.048e-02,-3.8
-6.016e-02,-5.2
-5.984e-02,-1.2
-5.952e-02,0.4
-5.920e-02,-3.8
-5.888e-02,-1.6
-5.856e-02,-2.2
-5.824e-02,-2.6
-5.792e-02,-2.2
-5.760e-02,-1.2
-5.728e-02,-0.8
-5.696e-02,-0.4
-5.664e-02,-1.4
-5.632e-02,-1.6
-5.600e-02,-2.4
-5.568e-02,-1
-5.536e-02,1.2
-5.504e-02,0.6
-5.472e-02,0.6
-5.440e-02,0.6
-5.408e-02,1.4
-5.376e-02,2.2
-5.344e-02,2.4
-5.312e-02,2
-5.280e-02,4
-5.248e-02,6.8
-5.216e-02,6.2
-5.184e-02,4.2
-5.152e-02,3
-5.120e-02,4.8
-5.088e-02,7.2
-5.056e-02,8
-5.024e-02,7
-4.992e-02,2.4
-4.960e-02,2.4
-4.928e-02,4.8
-4.896e-02,4.2
-4.864e-02,7.4
-4.832e-02,7.4
-4.800e-02,4.2
-4.768e-02,5.6
-4.736e-02,0.6
-4.704e-02,3.2
-4.672e-02,4.2
-4.640e-02,2.8
-4.608e-02,2.6
-4.576e-02,1.4
-4.544e-02,3.4
-4.512e-02,3.8
-4.480e-02,1.8
-4.448e-02,3
-4.416e-02,1
-4.384e-02,1.2
-4.352e-02,1.8
-4.320e-02,1.2
-4.288e-02,3
-4.256e-02,3
-4.224e-02,1.8
-4.192e-02,1.8
-4.160e-02,1.2
-4.128e-02,1
-4.096e-02,1
-4.064e-02,0.8
-4.032e-02,0.6
-4.000e-02,-0.2
-3.968e-02,0.4
-3.936e-02,0.8
-3.904e-02,0.6
-3.872e-02,-0.2
-3.840e-02,0.4
-3.808e-02,-0.2
-3.776e-02,-0.8
-3.744e-02,-1.2
-3.712e-02,-4.8
-3.680e-02,-6.6
-3.648e-02,-5.4
-3.616e-02,-2.6
-3.584e-02,-2.6
-3.552e-02,-4.2
-3.520e-02,-6.4
-3.488e-02,-5.8
-3.456e-02,-5.6
-3.424e-02,-5.8
-3.392e-02,-6.4
-3.360e-02,-6.6
-3.328e-02,-5.8
-3.296e-02,-6.6
-3.264e-02,-5.6
-3.232e-02,-5
-3.200e-02,-5.4
-3.168e-02,-4.2
-3.136e-02,-4.4
-3.104e-02,-3.8
-3.072e-02,-4
-3.040e-02,-3
-3.008e-02,-2.8
-2.976e-02,-2.8
-2.944e-02,-2
-2.912e-02,-5.6
-2.880e-02,-2.2
-2.848e-02,-4.6
-2.816e-02,-3
-2.784e-02,-0.4
-2.752e-02,-1
-2.720e-02,-3.2
-2.688e-02,-1.4
-2.656e-02,-2.4
-2.624e-02,-2.4
-2.592e-02,-1.4
-2.560e-02,-2
-2.528e-02,-1
-2.496e-02,-1.4
-2.464e-02,-1.8
-2.432e-02,-1
-2.400e-02,-1
-2.368e-02,-0.4
-2.336e-02,0.4
-2.304e-02,1.4
-2.272e-02,2.6
-2.240e-02,2
-2.208e-02,3.6
-2.176e-02,5
-2.144e-02,5.6
-2.112e-02,6.2
-2.080e-02,9.8
-2.048e-02,8
-2.016e-02,6.4
-1.984e-02,5.4
-1.952e-02,5.6
-1.920e-02,7.8
-1.888e-02,8
-1.856e-02,10.2
-1.824e-02,9.6
-1.792e-02,4.4
-1.760e-02,4.6
-1.728e-02,5.2
-1.696e-02,3.6
-1.664e-02,8.4
-1.632e-02,6
-1.600e-02,4
-1.568e-02,3.4
-1.536e-02,1.4
-1.504e-02,3.4
-1.472e-02,2.8
-1.440e-02,3.4
-1.408e-02,3
-1.376e-02,2.2
-1.344e-02,0.6
-1.312e-02,-0.6
-1.280e-02,0.4
-1.248e-02,1
-1.216e-02,3
-1.184e-02,0.4
-1.152e-02,1
-1.120e-02,1.2
-1.088e-02,1.2
-1.056e-02,-1.2
-1.024e-02,-1.8
-9.920e-03,-1.8
-9.600e-03,-3
-9.280e-03,-3.4
-8.960e-03,-1.2
-8.640e-03,-4.4
-8.320e-03,-4.6
-8.000e-03,-2.8
-7.680e-03,-2.4
-7.360e-03,-3.4
-7.040e-03,-3.4
-6.720e-03,-4
-6.400e-03,-4.2
-6.080e-03,-5
-5.760e-03,-5.2
-5.440e-03,-3
-5.120e-03,-3.4
-4.800e-03,-5.2
-4.480e-03,-4.6
-4.160e-03,-5.6
-3.840e-03,-4
-3.520e-03,-4.6
-3.200e-03,-4.6
-2.880e-03,-5
-2.560e-03,-5
-2.240e-03,-4.6
-1.920e-03,-4.6
-1.600e-03,-4
-1.280e-03,-3.6
-9.600e-04,-3.6
-6.400e-04,-4.8
-3.200e-04,-3.4
-7.585e-15,-3
3.200e-04,-2.6
6.400e-04,-2.6
9.600e-04,1
1.280e-03,-3.2
1.600e-03,-1.4
1.920e-03,-1.8
2.240e-03,-0.8
2.560e-03,-1.2
2.880e-03,-2.2
3.200e-03,-2.4
3.520e-03,-2.6
3.840e-03,-2.2
4.160e-03,-0.8
4.480e-03,-1
4.800e-03,-1.8
5.120e-03,-1.6
5.440e-03,-1.6
5.760e-03,-0.8
6.080e-03,-0.2
6.400e-03,0.8
6.720e-03,2.2
7.040e-03,0
7.360e-03,0
7.680e-03,2
8.000e-03,2.6
8.320e-03,2.2
8.640e-03,2.8
8.960e-03,3
9.280e-03,2.8
9.600e-03,4.8
9.920e-03,3.8
1.024e-02,5.4
1.056e-02,4.8
1.088e-02,5.2
1.120e-02,5.8
1.152e-02,2.6
1.184e-02,3.6
1.216e-02,6.4
1.248e-02,4.8
1.280e-02,7.8
1.312e-02,7.2
1.344e-02,4.2
1.376e-02,5.2
1.408e-02,7.8
1.440e-02,3.6
1.472e-02,3.8
1.504e-02,4.8
1.536e-02,1.6
1.568e-02,3
1.600e-02,4.6
1.632e-02,2.2
1.664e-02,3.4
1.696e-02,2.6
1.728e-02,1.2
1.760e-02,1.4
1.792e-02,3.8
1.824e-02,13
1.856e-02,1
1.888e-02,-1.8
1.920e-02,-0.8
1.952e-02,1.2
1.984e-02,0.4
2.016e-02,-1
2.048e-02,0.2
2.080e-02,-1.2
2.112e-02,-1
2.144e-02,0.6
2.176e-02,-1.8
2.208e-02,-2.4
2.240e-02,-4
2.272e-02,-4
2.304e-02,-3.4
2.336e-02,-4.2
2.368e-02,-3.6
2.400e-02,-4.4
2.432e-02,-6.2
2.464e-02,-5.8
2.496e-02,-4.8
2.528e-02,-6.4
2.560e-02,-4.8
2.592e-02,-5
2.624e-02,-6.2
2.656e-02,-6.4
2.688e-02,-5
2.720e-02,-6.6
2.752e-02,-6.6
2.784e-02,-5.2
2.816e-02,-5.6
2.848e-02,-5.8
2.880e-02,-5
2.912e-02,-3.4
2.944e-02,-5
2.976e-02,-4.6
3.008e-02,-4.4
3.040e-02,-1.8
3.072e-02,-4.4
3.104e-02,-6.2
3.136e-02,-3.2
3.168e-02,-5.6
3.200e-02,-1.4
3.232e-02,-1.6
3.264e-02,-1
3.296e-02,-1.8
3.328e-02,-2.4
3.360e-02,-1.6
3.392e-02,-1.6
3.424e-02,-0.2
3.456e-02,-1.4
3.488e-02,-1
3.520e-02,-1
3.552e-02,0.8
3.584e-02,-0.2
3.616e-02,0
3.648e-02,-2.2
3.680e-02,0.6
3.712e-02,2.6
3.744e-02,0.8
3.776e-02,1.8
3.808e-02,2.6
3.840e-02,5.2
3.872e-02,5.6
3.904e-02,4
3.936e-02,8
3.968e-02,4.6
4.000e-02,2.8
4.032e-02,3.8
4.064e-02,6.6
4.096e-02,10.2
4.128e-02,9.4
4.160e-02,6.4
4.192e-02,4.6
4.224e-02,5
4.256e-02,4.4
4.288e-02,8.6
4.320e-02,7
4.352e-02,5.6
4.384e-02,5.2
4.416e-02,4
4.448e-02,3.6
4.480e-02,2.8
4.512e-02,1.2
4.544e-02,4.2
4.576e-02,3.2
4.608e-02,4.2
4.640e-02,0
4.672e-02,1.4
4.704e-02,1.2
4.736e-02,1.2
4.768e-02,-0.2
4.800e-02,-1.4
4.832e-02,-5.4
4.864e-02,2.8
4.896e-02,-0.2
4.928e-02,-0.4
4.960e-02,-0.8
4.992e-02,-1.2
5.024e-02,-0.2
5.056e-02,-1.2
5.088e-02,-2.6
5.120e-02,-2.8
5.152e-02,-1.4
5.184e-02,-1.4
5.216e-02,-2.2
5.248e-02,-2
5.280e-02,-2.8
5.312e-02,-4.6
5.344e-02,-1.8
5.376e-02,-4.4
5.408e-02,-5.6
5.440e-02,-3.2
5.472e-02,-5.2
5.504e-02,-4.4
5.536e-02,-3.8
5.568e-02,-4.6
5.600e-02,-5.6
5.632e-02,-4.8
5.664e-02,-5.2
5.696e-02,-5.4
5.728e-02,-4.8
5.760e-02,-5
5.792e-02,-5
5.824e-02,-4.4
5.856e-02,-3.6
5.888e-02,-5
5.920e-02,-4.8
5.952e-02,-4.4
5.984e-02,-3.6
6.016e-02,-4
6.048e-02,-3.6
6.080e-02,-2.6
6.112e-02,-1.6
6.144e-02,-1.6
6.176e-02,-6
6.208e-02,1
6.240e-02,-4.4
6.272e-02,-3.2
6.304e-02,-3.6
6.336e-02,-4.2
6.368e-02,-2.2
6.400e-02,-3
6.432e-02,-2.4
6.464e-02,-1.2
6.496e-02,-0.4
6.528e-02,-1.2
6.560e-02,-2.2
6.592e-02,-1.8
6.624e-02,-0.6
6.656e-02,-0.4
6.688e-02,-0.4
6.720e-02,-0.6
6.752e-02,0.8
6.784e-02,2.6
6.816e-02,3
6.848e-02,1.8
6.880e-02,5.2
6.912e-02,4.4
6.944e-02,4.4
6.976e-02,8.6
7.008e-02,5.4
7.040e-02,5.4
7.072e-02,7.2
7.104e-02,7
7.136e-02,8.4
7.168e-02,8.8
7.200e-02,7.6
7.232e-02,5.4
7.264e-02,7.2
7.296e-02,7.4
7.328e-02,3.6
7.360e-02,3.2
7.392e-02,7.2
7.424e-02,8
7.456e-02,0.2
7.488e-02,4.8
7.520e-02,5.4
7.552e-02,5
7.584e-02,0.8
7.616e-02,2.8
7.648e-02,6.2
7.680e-02,2.8
7.712e-02,0.8
7.744e-02,2.2
7.776e-02,6.8
7.808e-02,10.4
7.840e-02,-2.6
7.872e-02,-2.4
7.904e-02,0.4
7.936e-02,1.4
7.968e-02,-1
8.000e-02,-0.4
8.032e-02,-0.4
8.064e-02,-0.8
8.096e-02,-2.6
8.128e-02,-3.2
8.160e-02,-3.8
8.192e-02,-2.8
8.224e-02,-1.8
8.256e-02,-2.4
8.288e-02,-4.2
8.320e-02,-3.8
8.352e-02,-6
8.384e-02,-5.4
8.416e-02,-5
8.448e-02,-5.6
8.480e-02,-3.4
8.512e-02,-5.8
8.544e-02,-6.4
8.576e-02,-5
8.608e-02,-5.2
8.640e-02,-4.4
8.672e-02,-6
8.704e-02,-6
8.736e-02,-5
8.768e-02,-6
8.800e-02,-5.4
8.832e-02,-5
8.864e-02,-3.6
8.896e-02,-3.8
8.928e-02,-3.8
8.960e-02,-4.6
8.992e-02,-4.8
9.024e-02,-3.6
9.056e-02,-2.2
9.088e-02,-2
9.120e-02,-6.4
9.152e-02,-1.6
9.184e-02,-6.2
9.216e-02,-2.4
9.248e-02,0.8
9.280e-02,0.2
9.312e-02,-2.2
9.344e-02,-0.2
9.376e-02,-2.2
9.408e-02,-2.4
9.440e-02,-1.6
9.472e-02,-0.6
9.504e-02,-1.2
9.536e-02,-0.6
9.568e-02,-0.6
9.600e-02,-0.8
9.632e-02,1
9.664e-02,2
9.696e-02,0.6
9.728e-02,0.4
9.760e-02,1
9.792e-02,2
9.824e-02,3.2
9.856e-02,5
9.888e-02,4.2
9.920e-02,4.4
9.952e-02,4.2
9.984e-02,3.4
1.002e-01,3.8
1.005e-01,5.4
1.008e-01,5.8
1.011e-01,6
1.014e-01,6.2
