TEK00000.CSV

Model,TBS1052C
Firmware Version,v2015-08-04-prequal4ch70_v1.3

Point Format,Y
Horizontal Units,S
Horizontal Scale,0.1
Sample Interval,0.0008
Filter Frequency,2e+08
Record Length,2000
Gating,0.0% to 100.0%
Probe Attenuation,1
Vertical Units,V
Vertical Offset,0
Vertical Scale,1
Label,
TIME,CH1
-8.000e-01,-1.32
-7.992e-01,-0.44
-7.984e-01,-1
-7.976e-01,-1.12
-7.968e-01,-0.56
-7.960e-01,-0.4
-7.952e-01,-0.68
-7.944e-01,-0.64
-7.936e-01,-0.56
-7.928e-01,-0.52
-7.920e-01,-0.84
-7.912e-01,-1.2
-7.904e-01,-0.88
-7.896e-01,-1.16
-7.888e-01,-1.12
-7.880e-01,-0.88
-7.872e-01,-0.72
-7.864e-01,-0.6
-7.856e-01,-0.68
-7.848e-01,-0.4
-7.840e-01,-0.28
-7.832e-01,-0.64
-7.824e-01,-0.68
-7.816e-01,-0.52
-7.808e-01,-0.36
-7.800e-01,-0.6
-7.792e-01,0.96
-7.784e-01,-1.72
-7.776e-01,-0.56
-7.768e-01,-0.48
-7.760e-01,-0.44
-7.752e-01,-0.08
-7.744e-01,-0.2
-7.736e-01,-0.2
-7.728e-01,-0.16
-7.720e-01,-0.08
-7.712e-01,-0.08
-7.704e-01,-0.04
-7.696e-01,-0.24
-7.688e-01,0.08
-7.680e-01,0.12
-7.672e-01,0
-7.664e-01,0.24
-7.656e-01,0.4
-7.648e-01,0.44
-7.640e-01,0.32
-7.632e-01,0.44
-7.624e-01,0.48
-7.616e-01,0.52
-7.608e-01,0.4
-7.600e-01,0.48
-7.592e-01,0.48
-7.584e-01,0.36
-7.576e-01,0.4
-7.568e-01,0.56
-7.560e-01,0.64
-7.552e-01,0.52
-7.544e-01,0.72
-7.536e-01,0.72
-7.528e-01,0.64
-7.520e-01,0.96
-7.512e-01,0.76
-7.504e-01,1.12
-7.496e-01,1.08
-7.488e-01,0.84
-7.480e-01,0.72
-7.472e-01,0.64
-7.464e-01,0.8
-7.456e-01,0.76
-7.448e-01,0.76
-7.440e-01,0.6
-7.432e-01,1.48
-7.424e-01,1
-7.416e-01,1.24
-7.408e-01,1.2
-7.400e-01,1
-7.392e-01,0.92
-7.384e-01,0.6
-7.376e-01,0.2
-7.368e-01,0.56
-7.360e-01,0.6
-7.352e-01,0.44
-7.344e-01,0.28
-7.336e-01,0.48
-7.328e-01,0.64
-7.320e-01,0.24
-7.312e-01,-0.16
-7.304e-01,-0.2
-7.296e-01,-0.2
-7.288e-01,-1.36
-7.280e-01,-0.96
-7.272e-01,-0.24
-7.264e-01,-1.84
-7.256e-01,-0.64
-7.248e-01,-1.12
-7.240e-01,-1.76
-7.232e-01,-1.48
-7.224e-01,-1.92
-7.216e-01,-1.28
-7.208e-01,-0.92
-7.200e-01,-1.04
-7.192e-01,-1
-7.184e-01,-1.16
-7.176e-01,-1.04
-7.168e-01,-0.92
-7.160e-01,-1.32
-7.152e-01,-1.36
-7.144e-01,-1.12
-7.136e-01,-1.2
-7.128e-01,-1
-7.120e-01,-0.8
-7.112e-01,-0.64
-7.104e-01,-0.6
-7.096e-01,0
-7.088e-01,-0.64
-7.080e-01,-0.72
-7.072e-01,-0.04
-7.064e-01,0
-7.056e-01,-0.32
-7.048e-01,0.28
-7.040e-01,0
-7.032e-01,-0.2
-7.024e-01,0.16
-7.016e-01,-0.12
-7.008e-01,0.04
-7.000e-01,0.2
-6.992e-01,0.36
-6.984e-01,0.56
-6.976e-01,0.32
-6.968e-01,0.76
-6.960e-01,0.84
-6.952e-01,0.44
-6.944e-01,0.8
-6.936e-01,0.68
-6.928e-01,0.68
-6.920e-01,0.76
-6.912e-01,0.68
-6.904e-01,0.68
-6.896e-01,1
-6.888e-01,1.48
-6.880e-01,0.52
-6.872e-01,1.8
-6.864e-01,1
-6.856e-01,0.96
-6.848e-01,0.92
-6.840e-01,0.6
-6.832e-01,0.52
-6.824e-01,0.72
-6.816e-01,0.56
-6.808e-01,0.56
-6.800e-01,0.68
-6.792e-01,0.6
-6.784e-01,0.6
-6.776e-01,0.48
-6.768e-01,0.84
-6.760e-01,0.76
-6.752e-01,0.48
-6.744e-01,0.52
-6.736e-01,0.24
-6.728e-01,0.44
-6.720e-01,0.28
-6.712e-01,0.12
-6.704e-01,0.04
-6.696e-01,0.2
-6.688e-01,0.12
-6.680e-01,0.32
-6.672e-01,0.48
-6.664e-01,0.24
-6.656e-01,0.16
-6.648e-01,0.6
-6.640e-01,0.16
-6.632e-01,0.36
-6.624e-01,-0.04
-6.616e-01,-0.24
-6.608e-01,-0.96
-6.600e-01,0.2
-6.592e-01,-0.24
-6.584e-01,-0.72
-6.576e-01,-1.32
-6.568e-01,-0.96
-6.560e-01,-0.72
-6.552e-01,-0.48
-6.544e-01,-0.8
-6.536e-01,-0.92
-6.528e-01,-0.56
-6.520e-01,-0.36
-6.512e-01,-0.32
-6.504e-01,-0.24
-6.496e-01,-0.28
-6.488e-01,-0.48
-6.480e-01,-0.8
-6.472e-01,-0.92
-6.464e-01,-0.64
-6.456e-01,-1
-6.448e-01,-0.92
-6.440e-01,-0.64
-6.432e-01,-0.76
-6.424e-01,-0.6
-6.416e-01,-0.52
-6.408e-01,-0.6
-6.400e-01,-0.44
-6.392e-01,-0.72
-6.384e-01,-0.72
-6.376e-01,-0.4
-6.368e-01,-0.88
-6.360e-01,-2.16
-6.352e-01,-1.64
-6.344e-01,-0.96
-6.336e-01,-0.72
-6.328e-01,-0.88
-6.320e-01,-0.4
-6.312e-01,-0.48
-6.304e-01,-0.16
-6.296e-01,-0.4
-6.288e-01,-0.44
-6.280e-01,-0.28
-6.272e-01,-0.2
-6.264e-01,-0.48
-6.256e-01,0.08
-6.248e-01,0.32
-6.240e-01,0.28
-6.232e-01,0.4
-6.224e-01,0.52
-6.216e-01,0.92
-6.208e-01,0.88
-6.200e-01,0.92
-6.192e-01,0.88
-6.184e-01,1.2
-6.176e-01,1.32
-6.168e-01,1.16
-6.160e-01,1.2
-6.152e-01,1.72
-6.144e-01,1.08
-6.136e-01,1.64
-6.128e-01,1.24
-6.120e-01,1.4
-6.112e-01,1.84
-6.104e-01,0.92
-6.096e-01,0.8
-6.088e-01,1.36
-6.080e-01,0.56
-6.072e-01,0.88
-6.064e-01,1.76
-6.056e-01,0.88
-6.048e-01,0.64
-6.040e-01,1.08
-6.032e-01,0.56
-6.024e-01,0.72
-6.016e-01,0.44
-6.008e-01,0.24
-6.000e-01,0
-5.992e-01,0.56
-5.984e-01,0.6
-5.976e-01,0.48
-5.968e-01,-0.36
-5.960e-01,-1.56
-5.952e-01,-0.16
-5.944e-01,-0.64
-5.936e-01,-0.4
-5.928e-01,-1.36
-5.920e-01,-0.28
-5.912e-01,-0.48
-5.904e-01,-0.96
-5.896e-01,-0.48
-5.888e-01,-0.76
-5.880e-01,-0.56
-5.872e-01,-0.72
-5.864e-01,-0.36
-5.856e-01,-0.56
-5.848e-01,-0.36
-5.840e-01,-0.88
-5.832e-01,-0.88
-5.824e-01,-0.44
-5.816e-01,-1
-5.808e-01,-0.88
-5.800e-01,-0.56
-5.792e-01,-0.68
-5.784e-01,-0.88
-5.776e-01,-0.64
-5.768e-01,-0.4
-5.760e-01,-0.32
-5.752e-01,-0.32
-5.744e-01,-0.6
-5.736e-01,-0.4
-5.728e-01,-0.32
-5.720e-01,-0.76
-5.712e-01,-0.72
-5.704e-01,-0.32
-5.696e-01,-0.4
-5.688e-01,-2.48
-5.680e-01,-1.36
-5.672e-01,0.28
-5.664e-01,-0.68
-5.656e-01,-0.56
-5.648e-01,-0.32
-5.640e-01,-0.32
-5.632e-01,-0.16
-5.624e-01,-0.16
-5.616e-01,-0.28
-5.608e-01,-0.24
-5.600e-01,-0.2
-5.592e-01,-0.2
-5.584e-01,-0.2
-5.576e-01,0.08
-5.568e-01,0
-5.560e-01,-0.04
-5.552e-01,0.24
-5.544e-01,0.28
-5.536e-01,0.24
-5.528e-01,0.12
-5.520e-01,0.2
-5.512e-01,0.24
-5.504e-01,0.32
-5.496e-01,0.24
-5.488e-01,0.12
-5.480e-01,0.32
-5.472e-01,0.24
-5.464e-01,0.44
-5.456e-01,0.36
-5.448e-01,0.52
-5.440e-01,0.4
-5.432e-01,0.48
-5.424e-01,0.6
-5.416e-01,0.64
-5.408e-01,0.64
-5.400e-01,0.52
-5.392e-01,0
-5.384e-01,0.36
-5.376e-01,0.4
-5.368e-01,0.52
-5.360e-01,0.44
-5.352e-01,0.52
-5.344e-01,0.16
-5.336e-01,0.32
-5.328e-01,0.64
-5.320e-01,0.4
-5.312e-01,0.44
-5.304e-01,0.52
-5.296e-01,0.48
-5.288e-01,0.56
-5.280e-01,0.56
-5.272e-01,0.52
-5.264e-01,0.52
-5.256e-01,0.32
-5.248e-01,0.6
-5.240e-01,0.64
-5.232e-01,0.64
-5.224e-01,0.72
-5.216e-01,0.48
-5.208e-01,0.32
-5.200e-01,0.36
-5.192e-01,0.28
-5.184e-01,0.52
-5.176e-01,0.2
-5.168e-01,0.16
-5.160e-01,0.24
-5.152e-01,0.4
-5.144e-01,0.52
-5.136e-01,0.28
-5.128e-01,0.36
-5.120e-01,0.2
-5.112e-01,0.04
-5.104e-01,-0.32
-5.096e-01,0.04
-5.088e-01,-1.4
-5.080e-01,0.32
-5.072e-01,-0.48
-5.064e-01,-0.68
-5.056e-01,-0.6
-5.048e-01,-1.12
-5.040e-01,-0.84
-5.032e-01,-0.48
-5.024e-01,-0.4
-5.016e-01,-0.6
-5.008e-01,-0.6
-5.000e-01,-0.56
-4.992e-01,-0.4
-4.984e-01,-0.6
-4.976e-01,-0.64
-4.968e-01,-0.8
-4.960e-01,-1.16
-4.952e-01,-1.04
-4.944e-01,-1.08
-4.936e-01,-0.88
-4.928e-01,-0.72
-4.920e-01,-0.6
-4.912e-01,-0.6
-4.904e-01,-0.52
-4.896e-01,-0.4
-4.888e-01,-0.64
-4.880e-01,-0.48
-4.872e-01,-0.44
-4.864e-01,-0.52
-4.856e-01,-0.4
-4.848e-01,-0.64
-4.840e-01,-1
-4.832e-01,-0.44
-4.824e-01,-0.12
-4.816e-01,-0.44
-4.808e-01,-0.08
-4.800e-01,-0.36
-4.792e-01,0
-4.784e-01,0.08
-4.776e-01,-0.32
-4.768e-01,-0.16
-4.760e-01,-0.16
-4.752e-01,-0.2
-4.744e-01,0.04
-4.736e-01,0.08
-4.728e-01,-0.04
-4.720e-01,0.2
-4.712e-01,0.16
-4.704e-01,0.2
-4.696e-01,0.44
-4.688e-01,0.2
-4.680e-01,0.2
-4.672e-01,0.24
-4.664e-01,0.32
-4.656e-01,0.36
-4.648e-01,0.4
-4.640e-01,0.4
-4.632e-01,0.24
-4.624e-01,0.4
-4.616e-01,0.36
-4.608e-01,0.44
-4.600e-01,0.48
-4.592e-01,0.48
-4.584e-01,0.56
-4.576e-01,0.6
-4.568e-01,0.52
-4.560e-01,0.76
-4.552e-01,0.68
-4.544e-01,0.6
-4.536e-01,0.76
-4.528e-01,0.32
-4.520e-01,0.44
-4.512e-01,0.36
-4.504e-01,0.4
-4.496e-01,0.48
-4.488e-01,0.48
-4.480e-01,0.44
-4.472e-01,0.6
-4.464e-01,0.56
-4.456e-01,0.64
-4.448e-01,0.72
-4.440e-01,0.88
-4.432e-01,0.32
-4.424e-01,0.36
-4.416e-01,0.48
-4.408e-01,0.56
-4.400e-01,0.16
-4.392e-01,0.16
-4.384e-01,0.04
-4.376e-01,0.28
-4.368e-01,0.24
-4.360e-01,0.16
-4.352e-01,0.16
-4.344e-01,0.12
-4.336e-01,0.2
-4.328e-01,0.28
-4.320e-01,0.32
-4.312e-01,0.36
-4.304e-01,0.16
-4.296e-01,-1.68
-4.288e-01,-0.76
-4.280e-01,-0.48
-4.272e-01,-0.68
-4.264e-01,-0.56
-4.256e-01,-0.44
-4.248e-01,-0.48
-4.240e-01,-0.44
-4.232e-01,-0.4
-4.224e-01,-0.6
-4.216e-01,-0.2
-4.208e-01,-0.28
-4.200e-01,-0.24
-4.192e-01,-0.2
-4.184e-01,-0.4
-4.176e-01,-0.56
-4.168e-01,-0.76
-4.160e-01,-0.88
-4.152e-01,-0.96
-4.144e-01,-1.04
-4.136e-01,-1.2
-4.128e-01,-0.96
-4.120e-01,-0.92
-4.112e-01,-1
-4.104e-01,-0.56
-4.096e-01,-0.68
-4.088e-01,-0.68
-4.080e-01,-0.6
-4.072e-01,-1
-4.064e-01,-0.88
-4.056e-01,-0.8
-4.048e-01,-1.12
-4.040e-01,0.92
-4.032e-01,-2.24
-4.024e-01,-0.16
-4.016e-01,-0.28
-4.008e-01,-0.6
-4.000e-01,-0.32
-3.992e-01,-0.56
-3.984e-01,-0.08
-3.976e-01,-0.12
-3.968e-01,-0.32
-3.960e-01,-0.16
-3.952e-01,0
-3.944e-01,-0.08
-3.936e-01,0.28
-3.928e-01,0.48
-3.920e-01,0.48
-3.912e-01,0.64
-3.904e-01,0.88
-3.896e-01,1.08
-3.888e-01,0.8
-3.880e-01,0.92
-3.872e-01,1.2
-3.864e-01,1.12
-3.856e-01,1.16
-3.848e-01,1
-3.840e-01,1.08
-3.832e-01,0.28
-3.824e-01,0.76
-3.816e-01,1.44
-3.808e-01,0.96
-3.800e-01,1.12
-3.792e-01,0.64
-3.784e-01,0.44
-3.776e-01,0.56
-3.768e-01,0.88
-3.760e-01,0.64
-3.752e-01,0.6
-3.744e-01,0.64
-3.736e-01,0.64
-3.728e-01,0.88
-3.720e-01,0.6
-3.712e-01,0.44
-3.704e-01,0.56
-3.696e-01,0.36
-3.688e-01,0.44
-3.680e-01,0.04
-3.672e-01,-0.28
-3.664e-01,-0.04
-3.656e-01,-0.12
-3.648e-01,0.28
-3.640e-01,0.32
-3.632e-01,0.12
-3.624e-01,0.04
-3.616e-01,-0.24
-3.608e-01,-0.04
-3.600e-01,-0.12
-3.592e-01,-0.28
-3.584e-01,-0.56
-3.576e-01,-0.56
-3.568e-01,-0.36
-3.560e-01,-0.48
-3.552e-01,-0.32
-3.544e-01,-0.64
-3.536e-01,-0.56
-3.528e-01,-0.56
-3.520e-01,-0.44
-3.512e-01,-0.52
-3.504e-01,-0.64
-3.496e-01,-0.36
-3.488e-01,-0.64
-3.480e-01,-0.84
-3.472e-01,-0.56
-3.464e-01,-0.56
-3.456e-01,-0.52
-3.448e-01,-0.64
-3.440e-01,-0.72
-3.432e-01,-0.36
-3.424e-01,-0.56
-3.416e-01,-0.52
-3.408e-01,-0.44
-3.400e-01,-0.44
-3.392e-01,-0.28
-3.384e-01,-0.44
-3.376e-01,-0.48
-3.368e-01,-0.2
-3.360e-01,-0.56
-3.352e-01,-0.6
-3.344e-01,-0.48
-3.336e-01,-0.64
-3.328e-01,-0.48
-3.320e-01,-0.68
-3.312e-01,-0.56
-3.304e-01,-1.36
-3.296e-01,-0.8
-3.288e-01,-0.64
-3.280e-01,-0.88
-3.272e-01,-0.48
-3.264e-01,-0.52
-3.256e-01,-0.68
-3.248e-01,-0.48
-3.240e-01,-0.36
-3.232e-01,-0.6
-3.224e-01,-0.48
-3.216e-01,-0.4
-3.208e-01,-0.2
-3.200e-01,-0.32
-3.192e-01,-0.2
-3.184e-01,0
-3.176e-01,-0.04
-3.168e-01,0.32
-3.160e-01,0.56
-3.152e-01,0.36
-3.144e-01,0.52
-3.136e-01,0.44
-3.128e-01,0.64
-3.120e-01,0.76
-3.112e-01,0.76
-3.104e-01,0.6
-3.096e-01,1.04
-3.088e-01,1.08
-3.080e-01,1.04
-3.072e-01,1.4
-3.064e-01,0.68
-3.056e-01,1.16
-3.048e-01,1.4
-3.040e-01,1
-3.032e-01,1.08
-3.024e-01,0.96
-3.016e-01,0.88
-3.008e-01,0.96
-3.000e-01,0.84
-2.992e-01,1.08
-2.984e-01,1.36
-2.976e-01,0.88
-2.968e-01,1
-2.960e-01,0.92
-2.952e-01,1.04
-2.944e-01,0.76
-2.936e-01,0.76
-2.928e-01,0.28
-2.920e-01,0.24
-2.912e-01,0.56
-2.904e-01,-0.04
-2.896e-01,0.6
-2.888e-01,-0.12
-2.880e-01,-0.76
-2.872e-01,-0.04
-2.864e-01,-0.6
-2.856e-01,-0.6
-2.848e-01,-0.72
-2.840e-01,-1.76
-2.832e-01,-0.44
-2.824e-01,-1.4
-2.816e-01,-1.56
-2.808e-01,-1
-2.800e-01,-0.68
-2.792e-01,-0.92
-2.784e-01,-0.76
-2.776e-01,-0.8
-2.768e-01,-1
-2.760e-01,-0.72
-2.752e-01,-1.2
-2.744e-01,-0.84
-2.736e-01,-1
-2.728e-01,-1.16
-2.720e-01,-0.8
-2.712e-01,-0.6
-2.704e-01,-0.76
-2.696e-01,-0.56
-2.688e-01,-0.72
-2.680e-01,-0.52
-2.672e-01,-0.48
-2.664e-01,-0.68
-2.656e-01,-0.44
-2.648e-01,-0.32
-2.640e-01,-1.96
-2.632e-01,-0.92
-2.624e-01,-1.08
-2.616e-01,-0.04
-2.608e-01,-0.28
-2.600e-01,-0.52
-2.592e-01,-0.24
-2.584e-01,-0.2
-2.576e-01,-0.32
-2.568e-01,-0.16
-2.560e-01,-0.16
-2.552e-01,0.08
-2.544e-01,-0.16
-2.536e-01,0
-2.528e-01,0.16
-2.520e-01,0.08
-2.512e-01,0
-2.504e-01,0.28
-2.496e-01,0.24
-2.488e-01,0.28
-2.480e-01,0.12
-2.472e-01,0.2
-2.464e-01,0.24
-2.456e-01,0.36
-2.448e-01,0.36
-2.440e-01,0.4
-2.432e-01,0.4
-2.424e-01,0.52
-2.416e-01,0.64
-2.408e-01,0.96
-2.400e-01,0.84
-2.392e-01,0.72
-2.384e-01,0.96
-2.376e-01,0.76
-2.368e-01,0.92
-2.360e-01,0.44
-2.352e-01,0.32
-2.344e-01,0.56
-2.336e-01,0.28
-2.328e-01,0.36
-2.320e-01,0.32
-2.312e-01,0.28
-2.304e-01,0.6
-2.296e-01,0.36
-2.288e-01,0.56
-2.280e-01,0.8
-2.272e-01,0.56
-2.264e-01,0.76
-2.256e-01,0.96
-2.248e-01,0.68
-2.240e-01,0.72
-2.232e-01,0.6
-2.224e-01,0.44
-2.216e-01,0.48
-2.208e-01,0.48
-2.200e-01,0.24
-2.192e-01,0.28
-2.184e-01,0.44
-2.176e-01,0.76
-2.168e-01,0.48
-2.160e-01,0.6
-2.152e-01,0.64
-2.144e-01,0.52
-2.136e-01,0.32
-2.128e-01,0.16
-2.120e-01,0.08
-2.112e-01,-0.2
-2.104e-01,0.12
-2.096e-01,-1.28
-2.088e-01,-0.64
-2.080e-01,-0.64
-2.072e-01,-0.84
-2.064e-01,-1.32
-2.056e-01,-1.08
-2.048e-01,-1.16
-2.040e-01,-1.12
-2.032e-01,-1.12
-2.024e-01,-1.28
-2.016e-01,-1.4
-2.008e-01,-1.2
-2.000e-01,-1.36
-1.992e-01,-1.16
-1.984e-01,-1.24
-1.976e-01,-1.36
-1.968e-01,-1.44
-1.960e-01,-1.4
-1.952e-01,-1.4
-1.944e-01,-1.2
-1.936e-01,-1.04
-1.928e-01,-0.68
-1.920e-01,-2.92
-1.912e-01,-0.8
-1.904e-01,0.24
-1.896e-01,-0.16
-1.888e-01,-0.4
-1.880e-01,-0.2
-1.872e-01,-0.12
-1.864e-01,0.04
-1.856e-01,-0.2
-1.848e-01,-0.24
-1.840e-01,-0.16
-1.832e-01,0.08
-1.824e-01,0.16
-1.816e-01,0.44
-1.808e-01,0.96
-1.800e-01,0.92
-1.792e-01,0.96
-1.784e-01,0.96
-1.776e-01,1.04
-1.768e-01,0.96
-1.760e-01,0.76
-1.752e-01,0.92
-1.744e-01,0.52
-1.736e-01,0.52
-1.728e-01,0.64
-1.720e-01,0.72
-1.712e-01,0.28
-1.704e-01,0.52
-1.696e-01,0.52
-1.688e-01,0.84
-1.680e-01,0.88
-1.672e-01,0.76
-1.664e-01,0.8
-1.656e-01,0.6
-1.648e-01,0.64
-1.640e-01,0.64
-1.632e-01,0.56
-1.624e-01,0.8
-1.616e-01,0.36
-1.608e-01,0.72
-1.600e-01,0.92
-1.592e-01,0.56
-1.584e-01,0.76
-1.576e-01,0.44
-1.568e-01,0.32
-1.560e-01,0.52
-1.552e-01,0.2
-1.544e-01,0.12
-1.536e-01,-0.04
-1.528e-01,0.12
-1.520e-01,0.36
-1.512e-01,0.2
-1.504e-01,0.2
-1.496e-01,0.36
-1.488e-01,0.52
-1.480e-01,0.16
-1.472e-01,0.36
-1.464e-01,0
-1.456e-01,0
-1.448e-01,-0.92
-1.440e-01,-1.08
-1.432e-01,-0.04
-1.424e-01,-0.4
-1.416e-01,-0.36
-1.408e-01,-0.8
-1.400e-01,-1.04
-1.392e-01,-0.6
-1.384e-01,-0.36
-1.376e-01,-0.8
-1.368e-01,-0.52
-1.360e-01,-0.68
-1.352e-01,-0.32
-1.344e-01,-0.4
-1.336e-01,-0.16
-1.328e-01,-0.44
-1.320e-01,-0.76
-1.312e-01,-0.68
-1.304e-01,-0.6
-1.296e-01,-0.8
-1.288e-01,-0.72
-1.280e-01,-0.84
-1.272e-01,-0.84
-1.264e-01,-0.92
-1.256e-01,-0.76
-1.248e-01,-0.48
-1.240e-01,-0.6
-1.232e-01,-0.64
-1.224e-01,-0.76
-1.216e-01,-0.76
-1.208e-01,-0.56
-1.200e-01,-0.88
-1.192e-01,-2.84
-1.184e-01,-0.12
-1.176e-01,-0.2
-1.168e-01,-0.84
-1.160e-01,-0.92
-1.152e-01,-0.6
-1.144e-01,-0.12
-1.136e-01,-0.24
-1.128e-01,-0.12
-1.120e-01,-0.28
-1.112e-01,-0.48
-1.104e-01,-0.16
-1.096e-01,-0.32
-1.088e-01,-0.12
-1.080e-01,-0.08
-1.072e-01,0.44
-1.064e-01,0.4
-1.056e-01,0.6
-1.048e-01,0.84
-1.040e-01,0.76
-1.032e-01,0.72
-1.024e-01,0.68
-1.016e-01,1.12
-1.008e-01,1.44
-1.000e-01,0.8
-9.920e-02,1.08
-9.840e-02,1.44
-9.760e-02,1.6
-9.680e-02,1.64
-9.600e-02,1.52
-9.520e-02,1.12
-9.440e-02,1.28
-9.360e-02,0.92
-9.280e-02,1.04
-9.200e-02,0.92
-9.120e-02,0.96
-9.040e-02,1.16
-8.960e-02,1.04
-8.880e-02,0.96
-8.800e-02,1.08
-8.720e-02,0.72
-8.640e-02,0.76
-8.560e-02,1.04
-8.480e-02,0.32
-8.400e-02,-0.08
-8.320e-02,0.04
-8.240e-02,0.28
-8.160e-02,0.64
-8.080e-02,0.2
-8.000e-02,-1
-7.920e-02,-0.2
-7.840e-02,-1
-7.760e-02,-0.64
-7.680e-02,-0.4
-7.600e-02,-0.68
-7.520e-02,-1.08
-7.440e-02,-1
-7.360e-02,-1.08
-7.280e-02,-0.96
-7.200e-02,-0.96
-7.120e-02,-0.64
-7.040e-02,-0.52
-6.960e-02,-0.2
-6.880e-02,-0.48
-6.800e-02,-0.6
-6.720e-02,-0.64
-6.640e-02,-0.92
-6.560e-02,-0.64
-6.480e-02,-0.96
-6.400e-02,-1.12
-6.320e-02,-0.8
-6.240e-02,-0.84
-6.160e-02,-0.64
-6.080e-02,-0.64
-6.000e-02,-0.8
-5.920e-02,-0.24
-5.840e-02,-0.48
-5.760e-02,-0.68
-5.680e-02,-0.64
-5.600e-02,-0.6
-5.520e-02,-0.52
-5.440e-02,-2.32
-5.360e-02,-2.12
-5.280e-02,1.4
-5.200e-02,-0.32
-5.120e-02,-0.36
-5.040e-02,-0.56
-4.960e-02,-0.24
-4.880e-02,-0.04
-4.800e-02,-0.32
-4.720e-02,-0.2
-4.640e-02,-0.12
-4.560e-02,0.08
-4.480e-02,-0.08
-4.400e-02,-0.08
-4.320e-02,0
-4.240e-02,0.04
-4.160e-02,0.16
-4.080e-02,0.36
-4.000e-02,0.4
-3.920e-02,0.36
-3.840e-02,0.28
-3.760e-02,0.4
-3.680e-02,0.4
-3.600e-02,0.16
-3.520e-02,0.4
-3.440e-02,0.16
-3.360e-02,0.4
-3.280e-02,0.48
-3.200e-02,0.24
-3.120e-02,0.64
-3.040e-02,0.44
-2.960e-02,0.32
-2.880e-02,0.68
-2.800e-02,0.48
-2.720e-02,0.72
-2.640e-02,0.52
-2.560e-02,0.64
-2.480e-02,0.84
-2.400e-02,1
-2.320e-02,0.68
-2.240e-02,1.12
-2.160e-02,0.4
-2.080e-02,0.64
-2.000e-02,0.72
-1.920e-02,0.44
-1.840e-02,1.08
-1.760e-02,0.76
-1.680e-02,1.2
-1.600e-02,1.12
-1.520e-02,0.92
-1.440e-02,1.16
-1.360e-02,0.96
-1.280e-02,0.72
-1.200e-02,0.48
-1.120e-02,0.44
-1.040e-02,0.28
-9.600e-03,0.48
-8.800e-03,0.32
-8.000e-03,0.24
-7.200e-03,0.4
-6.400e-03,0.44
-5.600e-03,0.28
-4.800e-03,-0.12
-4.000e-03,-0.24
-3.200e-03,-0.32
-2.400e-03,-0.16
-1.600e-03,-1.56
-8.000e-04,-1
1.463e-14,-1.08
8.000e-04,-1.72
1.600e-03,-0.96
2.400e-03,-1.68
3.200e-03,-0.92
4.000e-03,-1.56
4.800e-03,-1.96
5.600e-03,-1.16
6.400e-03,-1.24
7.200e-03,-1.2
8.000e-03,-0.84
8.800e-03,-1
9.600e-03,-0.92
1.040e-02,-1.08
1.120e-02,-1.44
1.200e-02,-1.2
1.280e-02,-1.08
1.360e-02,-1.16
1.440e-02,-1.08
1.520e-02,0.8
1.600e-02,0.56
1.680e-02,-0.12
1.760e-02,0.12
1.840e-02,-0.32
1.920e-02,0.08
2.000e-02,0
2.080e-02,-0.16
2.160e-02,0.36
2.240e-02,-0.24
2.320e-02,-0.24
2.400e-02,-0.08
2.480e-02,-0.04
2.560e-02,0.32
2.640e-02,0.24
2.720e-02,0.4
2.800e-02,0.68
2.880e-02,0.92
2.960e-02,0.64
3.040e-02,0.56
3.120e-02,0.56
3.200e-02,0.64
3.280e-02,0.36
3.360e-02,0.76
3.440e-02,0.48
3.520e-02,0.44
3.600e-02,0.64
3.680e-02,0.48
3.760e-02,1.72
3.840e-02,0.84
3.920e-02,0.96
4.000e-02,1.08
4.080e-02,0.88
4.160e-02,0.64
4.240e-02,0.56
4.320e-02,0.36
4.400e-02,0.28
4.480e-02,0.28
4.560e-02,0.24
4.640e-02,0.56
4.720e-02,0.36
4.800e-02,0.76
4.880e-02,0.76
4.960e-02,0.44
5.040e-02,1.04
5.120e-02,0.36
5.200e-02,0.76
5.280e-02,0.4
5.360e-02,0.16
5.440e-02,0.16
5.520e-02,0.08
5.600e-02,0.04
5.680e-02,-0.04
5.760e-02,0.04
5.840e-02,0.28
5.920e-02,0.28
6.000e-02,0.08
6.080e-02,0.28
6.160e-02,0.92
6.240e-02,-0.04
6.320e-02,-0.08
6.400e-02,0.4
6.480e-02,0.48
6.560e-02,0.04
6.640e-02,-0.52
6.720e-02,-0.64
6.800e-02,0.16
6.880e-02,0.04
6.960e-02,-0.56
7.040e-02,-0.64
7.120e-02,-0.4
7.200e-02,-0.24
7.280e-02,-0.76
7.360e-02,-0.6
7.440e-02,-0.52
7.520e-02,-0.88
7.600e-02,-0.72
7.680e-02,-0.6
7.760e-02,-0.68
7.840e-02,-1
7.920e-02,-1.08
8.000e-02,-0.92
8.080e-02,-1.04
8.160e-02,-1.24
8.240e-02,-1.12
8.320e-02,-0.96
8.400e-02,-0.92
8.480e-02,-1.12
8.560e-02,-1.12
8.640e-02,-0.72
8.720e-02,-0.8
8.800e-02,-1.08
8.880e-02,-0.76
8.960e-02,-0.72
9.040e-02,-1.24
9.120e-02,-1.8
9.200e-02,-1.68
9.280e-02,-0.72
9.360e-02,-0.68
9.440e-02,-0.64
9.520e-02,-0.12
9.600e-02,0.04
9.680e-02,-0.32
9.760e-02,-0.08
9.840e-02,0.04
9.920e-02,0.2
1.000e-01,0.56
1.008e-01,0.6
1.016e-01,0.88
1.024e-01,0.68
1.032e-01,1.08
1.040e-01,0.96
1.048e-01,0.88
1.056e-01,1.12
1.064e-01,1.28
1.072e-01,1
1.080e-01,1.08
1.088e-01,1.24
1.096e-01,0.68
1.104e-01,1.52
1.112e-01,0.92
1.120e-01,1.28
1.128e-01,1.4
1.136e-01,0.76
1.144e-01,0.76
1.152e-01,0.6
1.160e-01,1.16
1.168e-01,0.84
1.176e-01,0.76
1.184e-01,0.96
1.192e-01,0.96
1.200e-01,0.64
1.208e-01,0.92
1.216e-01,0.48
1.224e-01,0.48
1.232e-01,0.16
1.240e-01,0.08
1.248e-01,-0.16
1.256e-01,0.28
1.264e-01,0.4
1.272e-01,0.2
1.280e-01,0.24
1.288e-01,-0.04
1.296e-01,-0.48
1.304e-01,-0.2
1.312e-01,-0.64
1.320e-01,-0.52
1.328e-01,-1.84
1.336e-01,0.04
1.344e-01,-1.24
1.352e-01,-1.44
1.360e-01,-1.64
1.368e-01,-0.16
1.376e-01,-0.28
1.384e-01,-0.36
1.392e-01,-0.48
1.400e-01,-0.56
1.408e-01,-0.68
1.416e-01,-0.68
1.424e-01,-0.76
1.432e-01,-0.68
1.440e-01,-0.88
1.448e-01,-0.92
1.456e-01,-0.64
1.464e-01,-0.92
1.472e-01,-0.72
1.480e-01,-0.64
1.488e-01,-0.76
1.496e-01,-0.48
1.504e-01,-0.48
1.512e-01,-0.6
1.520e-01,-0.48
1.528e-01,-0.68
1.536e-01,-0.68
1.544e-01,-0.36
1.552e-01,-0.48
1.560e-01,-1.68
1.568e-01,-0.24
1.576e-01,-0.72
1.584e-01,-1.12
1.592e-01,-0.44
1.600e-01,-0.12
1.608e-01,-0.12
1.616e-01,-0.2
1.624e-01,-0.2
1.632e-01,-0.32
1.640e-01,-0.36
1.648e-01,-0.4
1.656e-01,-0.36
1.664e-01,-0.32
1.672e-01,-0.24
1.680e-01,-0.24
1.688e-01,-0.12
1.696e-01,0
1.704e-01,0.24
1.712e-01,0.24
1.720e-01,0.28
1.728e-01,0.56
1.736e-01,0.36
1.744e-01,0.48
1.752e-01,0.64
1.760e-01,0.16
1.768e-01,0.64
1.776e-01,0.68
1.784e-01,0.56
1.792e-01,0.84
1.800e-01,1.08
1.808e-01,1
1.816e-01,0.6
1.824e-01,1.36
